## Interface: 11320
## Title: DoMeWhen Classic - Hunter
## Author: fisker - modified by s2812
## Notes: Hunter Rotation for DoMeWhen Classic
## DefaultState: Disabled
## Dependencies: DoMeWhen-Classic

Settings.lua
Rotation.lua